id,name,model_id:id,group_id:id,perm_read,perm_write,perm_create,perm_unlink
access_smartsense_launche,access.smartsense.launche,model_smartsense_launche,,1,1,1,1
access_smartsens_sensordata_stream,access.smartsens.sensordata.stream,model_smartsens_sensordata_stream,,1,1,1,1
